DATA VISUALIZATION
…
1.1.2 Afterwards Ive duplicate listings and cleaned the columns. As example Some brand name of car are mixed by captilization and short from of name or spelling error.Like in row 10, maxda->mazda

## Before Cleaning  we have 28 brand name

## # A tibble: 28 x 2
##    brandname       n
##    <chr>       <int>
##  1 alfa-romero     3
##  2 audi            7
##  3 bmw             8
##  4 buick           8
##  5 chevrolet       3
##  6 dodge           9
##  7 honda          13
##  8 isuzu           4
##  9 jaguar          3
## 10 maxda           2
## # ... with 18 more rows

## After Cleaning  we have 22 brand name

## # A tibble: 22 x 2
##    brandname       n
##    <chr>       <int>
##  1 alfa-romero     3
##  2 audi            7
##  3 bmw             8
##  4 buick           8
##  5 chevrolet       3
##  6 dodge           9
##  7 honda          13
##  8 isuzu           4
##  9 jaguar          3
## 10 mazda          17
## # ... with 12 more rows
…
We are going to drop the code column.

soybean_use1 <-select(soybean_use,-c("code"))
soybean_use1

## # A tibble: 9,897 x 5
##    entity  year human_food animal_feed processed
##    <chr>  <dbl>      <dbl>       <dbl>     <dbl>
##  1 Africa  1961      33000        6000     14000
##  2 Africa  1962      43000        7000     17000
##  3 Africa  1963      31000        7000      5000
##  4 Africa  1964      43000        6000     14000
##  5 Africa  1965      34000        6000     12000
##  6 Africa  1966      41000        6000      2000
##  7 Africa  1967      47000        6000      4000
##  8 Africa  1968      50000        7000      3000
##  9 Africa  1969      52000        6000      6000
## 10 Africa  1970      52000        6000      8000
## # ... with 9,887 more rows

We are going to calculate the toatl use of soybean.

soybean_use1 %>%
mutate(total=human_food+animal_feed+processed)

## # A tibble: 9,897 x 6
##    entity  year human_food animal_feed processed total
##    <chr>  <dbl>      <dbl>       <dbl>     <dbl> <dbl>
##  1 Africa  1961      33000        6000     14000 53000
##  2 Africa  1962      43000        7000     17000 67000
##  3 Africa  1963      31000        7000      5000 43000
##  4 Africa  1964      43000        6000     14000 63000
##  5 Africa  1965      34000        6000     12000 52000
##  6 Africa  1966      41000        6000      2000 49000
##  7 Africa  1967      47000        6000      4000 57000
##  8 Africa  1968      50000        7000      3000 60000
##  9 Africa  1969      52000        6000      6000 64000
## 10 Africa  1970      52000        6000      8000 66000
## # ... with 9,887 more rows
…
car <-read_delim("data/Used_Car_Price_Data.csv")

## Rows: 1000 Columns: 6

## -- Column specification --------------------------------------------------------
## Delimiter: ","
## chr (3): Name, Review, Badge

## 
## i Use `spec()` to retrieve the full column specification for this data.
## i Specify the column types or set `show_col_types = FALSE` to quiet this message.

car

## # A tibble: 1,000 x 6
##    Name                           `Price($)` Milage Review Review_count Badge   
##    <chr>                               <dbl>  <dbl> <chr>         <dbl> <chr>   
##  1 2021 Toyota Camry SE                31150  13390 4.5             659 "Good D~
##  2 2021 Toyota Supra 3.0 Premium       58981   7348 4.8            2744 "Great ~
##  3 2019 Toyota Sequoia Platinum        51999  55121 4.5            2092 "Great ~
##  4 2019 Toyota Camry SE                25689  49126 1                 1 "Good D~
##  5 2017 Toyota Highlander Limited      31591  84621 4.9            1745 "Good D~
##  6 2021 Toyota Supra 3.0               55800  25990 4.6             642 "Good D~
##  7 2013 Toyota Land Cruiser V8         61000  13430 4.3             866 "Fair D~
##  8 2019 Toyota Camry SE                25493  49550 4.1             637 "Fair D~
##  9 2019 Toyota Camry SE                29791  16794 4.8            3210 "Fair D~
## 10 2017 Toyota Corolla LE              13899  49752 3.3              42 "Great ~
## # ... with 990 more rows
…
car_s

## # A tibble: 205 x 26
##    brandname symboling CarName fueltype aspiration doornumber carbody drivewheel
##    <chr>         <dbl> <chr>   <chr>    <chr>      <chr>      <chr>   <chr>     
##  1 alfa-rom~         3 alfa-r~ gas      std        two        conver~ rwd       
##  2 alfa-rom~         3 alfa-r~ gas      std        two        conver~ rwd       
##  3 alfa-rom~         1 alfa-r~ gas      std        two        hatchb~ rwd       
##  4 audi              2 audi 1~ gas      std        four       sedan   fwd       
##  5 audi              2 audi 1~ gas      std        four       sedan   4wd       
##  6 audi              2 audi f~ gas      std        two        sedan   fwd       
##  7 audi              1 audi 1~ gas      std        four       sedan   fwd       
##  8 audi              1 audi 5~ gas      std        four       wagon   fwd       
##  9 audi              1 audi 4~ gas      turbo      four       sedan   fwd       
## 10 audi              0 audi 5~ gas      turbo      two        hatchb~ 4wd       
## # ... with 195 more rows, and 18 more variables: enginelocation <chr>,
## #   wheelbase <dbl>, carlength <dbl>, carwidth <dbl>, carheight <dbl>,
## #   curbweight <dbl>, enginetype <chr>, cylindernumber <chr>, enginesize <dbl>,
## #   fuelsystem <chr>, boreratio <dbl>, stroke <dbl>, compressionratio <dbl>,
## #   horsepower <dbl>, peakrpm <dbl>, citympg <dbl>, highwaympg <dbl>,
## #   price <dbl>
…
